Data e Hora, Modo de Controle, TR (ºC), TI (ºC), TA (ºC), Sinal de Controle
2022-03-07 16:43:54, POTENC., 43.00, 35.62, 28.30, 100
2022-03-07 16:43:55, POTENC., 43.00, 35.56, 28.30, 100
2022-03-07 16:43:57, POTENC., 43.00, 35.56, 28.30, 100
2022-03-07 16:43:58, POTENC., 43.00, 35.56, 28.30, 100
2022-03-07 16:44:00, POTENC., 43.00, 35.56, 28.30, 100
2022-03-07 16:44:01, POTENC., 43.00, 35.56, 28.30, 100
2022-03-07 16:44:03, POTENC., 43.00, 35.50, 28.30, 100
2022-03-07 16:44:04, POTENC., 43.00, 35.50, 28.30, 100
2022-03-07 16:44:06, POTENC., 43.00, 35.62, 28.31, 100
2022-03-07 16:44:07, POTENC., 43.00, 35.62, 28.31, 100
2022-03-07 16:44:09, POTENC., 43.00, 35.62, 28.31, 100
2022-03-07 16:44:10, POTENC., 43.00, 35.62, 28.31, 100
2022-03-07 16:44:12, POTENC., 43.00, 35.62, 28.31, 100
2022-03-07 16:44:13, POTENC., 43.00, 35.69, 28.31, 100
2022-03-07 16:44:15, POTENC., 43.00, 35.69, 28.31, 100
2022-03-07 16:44:16, POTENC., 43.00, 35.81, 28.31, 100
2022-03-07 16:44:18, POTENC., 43.00, 35.81, 28.31, 100
2022-03-07 16:44:19, POTENC., 43.00, 35.81, 28.31, 100
2022-03-07 16:44:21, POTENC., 43.00, 35.94, 28.31, 100
2022-03-07 16:44:22, POTENC., 43.00, 35.94, 28.31, 100
2022-03-07 16:44:23, POTENC., 43.00, 36.00, 28.31, 50
2022-03-07 16:44:25, POTENC., 43.00, 36.00, 28.32, 100
2022-03-07 16:44:26, POTENC., 43.00, 36.12, 28.32, 100
2022-03-07 16:44:28, POTENC., 43.00, 36.25, 28.32, 100
2022-03-07 16:44:29, POTENC., 43.00, 36.25, 28.32, 100
2022-03-07 16:44:31, POTENC., 43.00, 36.31, 28.32, 100
2022-03-07 16:44:32, POTENC., 43.00, 36.31, 28.32, 100
2022-03-07 16:44:34, POTENC., 43.00, 36.50, 28.32, 100
2022-03-07 16:44:35, POTENC., 43.00, 36.50, 28.32, 100
2022-03-07 16:44:37, POTENC., 43.00, 36.56, 28.32, 100
2022-03-07 16:44:38, POTENC., 43.00, 36.75, 28.33, 100
2022-03-07 16:44:40, POTENC., 43.00, 36.75, 28.33, 100
2022-03-07 16:44:41, POTENC., 43.00, 36.81, 28.33, 100
2022-03-07 16:44:43, POTENC., 43.00, 36.81, 28.33, 100
2022-03-07 16:44:44, POTENC., 43.00, 37.06, 28.33, 30
2022-03-07 16:44:46, POTENC., 43.00, 37.06, 28.33, 100
2022-03-07 16:44:47, POTENC., 43.00, 37.19, 28.33, 100
2022-03-07 16:44:49, POTENC., 43.00, 37.31, 28.34, 100
2022-03-07 16:44:50, POTENC., 43.00, 37.31, 28.34, 100
2022-03-07 16:44:52, POTENC., 43.00, 37.44, 28.34, 100
2022-03-07 16:44:53, POTENC., 43.00, 37.44, 28.34, 100
2022-03-07 16:44:55, POTENC., 43.00, 37.56, 28.34, 100
2022-03-07 16:44:56, POTENC., 43.00, 37.56, 28.34, 100
2022-03-07 16:44:58, POTENC., 43.00, 37.75, 28.34, 100
2022-03-07 16:44:59, POTENC., 43.00, 37.88, 28.35, 100
2022-03-07 16:45:01, POTENC., 43.00, 37.88, 28.35, 100
2022-03-07 16:45:02, POTENC., 43.00, 38.06, 28.35, 10
2022-03-07 16:45:04, POTENC., 43.00, 38.06, 28.35, 100
2022-03-07 16:45:05, POTENC., 43.00, 38.19, 28.35, 100
2022-03-07 16:45:06, POTENC., 43.00, 38.19, 28.35, 100
2022-03-07 16:45:08, POTENC., 43.00, 38.38, 28.35, 100
2022-03-07 16:45:09, POTENC., 43.00, 38.56, 28.35, 100
2022-03-07 16:45:11, POTENC., 43.00, 38.56, 28.35, 100
2022-03-07 16:45:12, POTENC., 43.00, 38.69, 28.35, 100
2022-03-07 16:45:14, POTENC., 43.00, 38.69, 28.35, 100
2022-03-07 16:45:15, POTENC., 43.00, 38.88, 28.35, 100
2022-03-07 16:45:17, POTENC., 43.00, 38.88, 28.35, 100
2022-03-07 16:45:18, POTENC., 43.00, 39.06, 28.35, -9
2022-03-07 16:45:20, POTENC., 43.00, 39.19, 28.35, 90
2022-03-07 16:45:21, POTENC., 43.00, 39.19, 28.35, 90
2022-03-07 16:45:23, POTENC., 57.00, 39.38, 28.35, 100
2022-03-07 16:45:24, POTENC., 57.00, 39.38, 28.35, 100
2022-03-07 16:45:26, POTENC., 57.00, 39.56, 28.35, 100
2022-03-07 16:45:27, POTENC., 57.00, 39.56, 28.35, 100
2022-03-07 16:45:29, POTENC., 57.00, 39.69, 28.35, 100
2022-03-07 16:45:30, POTENC., 57.00, 39.88, 28.35, 100
2022-03-07 16:45:32, POTENC., 57.00, 39.88, 28.35, 100
2022-03-07 16:45:33, POTENC., 57.00, 40.00, 28.35, 100
2022-03-07 16:45:35, POTENC., 57.00, 40.00, 28.35, 100
2022-03-07 16:45:36, POTENC., 57.00, 40.19, 28.35, 100
2022-03-07 16:45:38, POTENC., 57.00, 40.19, 28.36, 100
2022-03-07 16:45:39, POTENC., 57.00, 40.38, 28.36, 100
2022-03-07 16:45:41, POTENC., 57.00, 40.56, 28.36, 100
2022-03-07 16:45:42, POTENC., 57.00, 40.56, 28.36, 100
2022-03-07 16:45:44, POTENC., 57.00, 40.75, 28.36, 100
2022-03-07 16:45:45, POTENC., 57.00, 40.75, 28.36, 100
2022-03-07 16:45:47, POTENC., 57.00, 40.88, 28.36, 100
2022-03-07 16:45:48, POTENC., 57.00, 40.88, 28.36, 100
2022-03-07 16:45:49, POTENC., 57.00, 41.06, 28.37, 100
2022-03-07 16:45:51, POTENC., 57.00, 41.25, 28.37, 100
2022-03-07 16:45:52, POTENC., 57.00, 41.25, 28.37, 100
2022-03-07 16:45:54, POTENC., 57.00, 41.44, 28.37, 100
2022-03-07 16:45:55, POTENC., 57.00, 41.44, 28.37, 100
2022-03-07 16:45:57, POTENC., 57.00, 41.56, 28.37, 100
2022-03-07 16:45:58, POTENC., 57.00, 41.56, 28.38, 100
2022-03-07 16:46:00, POTENC., 57.00, 41.81, 28.38, 100
2022-03-07 16:46:01, POTENC., 57.00, 41.94, 28.38, 100
2022-03-07 16:46:03, POTENC., 57.00, 41.94, 28.38, 100
2022-03-07 16:46:04, POTENC., 57.00, 42.12, 28.38, 100
2022-03-07 16:46:06, POTENC., 57.00, 42.12, 28.38, 100
2022-03-07 16:46:07, POTENC., 57.00, 42.31, 28.38, 100
2022-03-07 16:46:09, POTENC., 57.00, 42.31, 28.39, 100
2022-03-07 16:46:10, POTENC., 57.00, 42.50, 28.39, 100
2022-03-07 16:46:12, POTENC., 57.00, 42.62, 28.39, 100
2022-03-07 16:46:13, POTENC., 57.00, 42.62, 28.39, 100
2022-03-07 16:46:15, POTENC., 57.00, 42.81, 28.39, 100
2022-03-07 16:46:16, POTENC., 57.00, 42.81, 28.39, 100
2022-03-07 16:46:18, POTENC., 57.00, 43.00, 28.39, 100
2022-03-07 16:46:19, POTENC., 57.00, 43.00, 28.39, 100
2022-03-07 16:46:21, POTENC., 57.00, 43.19, 28.40, 100
2022-03-07 16:46:22, POTENC., 57.00, 43.38, 28.40, 100
2022-03-07 16:46:24, POTENC., 57.00, 43.38, 28.40, 100
2022-03-07 16:46:25, POTENC., 57.00, 43.38, 28.40, 100
2022-03-07 16:46:27, POTENC., 57.00, 43.75, 28.40, 100
2022-03-07 16:46:28, POTENC., 57.00, 43.75, 28.40, 100
2022-03-07 16:46:30, POTENC., 57.00, 43.88, 28.40, 100
2022-03-07 16:46:31, POTENC., 57.00, 43.88, 28.41, 100
2022-03-07 16:46:33, POTENC., 57.00, 44.06, 28.41, 100
2022-03-07 16:46:34, POTENC., 57.00, 44.06, 28.41, 100
2022-03-07 16:46:36, POTENC., 57.00, 44.25, 28.41, 100
2022-03-07 16:46:37, POTENC., 57.00, 44.44, 28.41, 100
2022-03-07 16:46:39, POTENC., 57.00, 44.44, 28.41, 100
2022-03-07 16:46:40, POTENC., 57.00, 44.62, 28.42, 100
2022-03-07 16:46:42, POTENC., 57.00, 44.62, 28.42, 100
2022-03-07 16:46:43, POTENC., 57.00, 44.81, 28.42, 100
2022-03-07 16:46:45, POTENC., 57.00, 44.81, 28.42, 100
2022-03-07 16:46:46, POTENC., 57.00, 45.00, 28.42, 100
2022-03-07 16:46:48, POTENC., 57.00, 45.12, 28.42, 100
2022-03-07 16:46:49, POTENC., 57.00, 45.12, 28.42, 100
2022-03-07 16:46:51, POTENC., 57.00, 45.38, 28.42, 100
2022-03-07 16:46:52, POTENC., 57.00, 45.38, 28.42, 100
2022-03-07 16:46:54, POTENC., 57.00, 45.50, 28.42, 100
2022-03-07 16:46:55, POTENC., 57.00, 45.50, 28.42, 100
2022-03-07 16:46:56, POTENC., 57.00, 45.62, 28.42, 100
2022-03-07 16:46:58, POTENC., 57.00, 45.81, 28.42, 100
2022-03-07 16:46:59, POTENC., 57.00, 45.81, 28.43, 100
2022-03-07 16:47:01, POTENC., 57.00, 46.00, 28.43, 100
2022-03-07 16:47:02, POTENC., 57.00, 46.00, 28.43, 100
2022-03-07 16:47:04, POTENC., 57.00, 46.19, 28.43, 100
2022-03-07 16:47:05, POTENC., 57.00, 46.19, 28.43, 100
2022-03-07 16:47:07, POTENC., 57.00, 46.38, 28.43, 100
2022-03-07 16:47:08, POTENC., 57.00, 46.56, 28.43, 100
2022-03-07 16:47:10, POTENC., 57.00, 46.56, 28.43, 100
2022-03-07 16:47:11, POTENC., 57.00, 46.69, 28.44, 100
2022-03-07 16:47:13, POTENC., 57.00, 46.69, 28.44, 100
2022-03-07 16:47:14, POTENC., 57.00, 46.88, 28.44, 100
2022-03-07 16:47:16, POTENC., 57.00, 46.88, 28.44, 100
2022-03-07 16:47:17, POTENC., 57.00, 47.06, 28.44, 100
2022-03-07 16:47:19, POTENC., 57.00, 47.25, 28.45, 100
2022-03-07 16:47:20, POTENC., 57.00, 47.25, 28.45, 100
2022-03-07 16:47:22, POTENC., 57.00, 47.38, 28.45, 100
2022-03-07 16:47:23, POTENC., 57.00, 47.38, 28.45, 100
2022-03-07 16:47:25, POTENC., 57.00, 47.50, 28.45, 100
2022-03-07 16:47:26, POTENC., 57.00, 47.50, 28.45, 100
2022-03-07 16:47:28, POTENC., 57.00, 47.69, 28.45, 100
2022-03-07 16:47:29, POTENC., 57.00, 47.88, 28.46, 100
2022-03-07 16:47:31, POTENC., 57.00, 47.88, 28.46, 100
2022-03-07 16:47:32, POTENC., 57.00, 48.00, 28.46, 90
2022-03-07 16:47:34, POTENC., 57.00, 48.00, 28.46, 100
2022-03-07 16:47:35, POTENC., 57.00, 48.19, 28.46, 100
2022-03-07 16:47:37, POTENC., 57.00, 48.19, 28.46, 100
2022-03-07 16:47:38, POTENC., 57.00, 48.38, 28.46, 100
2022-03-07 16:47:40, POTENC., 57.00, 48.50, 28.46, 100
2022-03-07 16:47:41, POTENC., 57.00, 48.50, 28.46, 100
2022-03-07 16:47:43, POTENC., 57.00, 48.69, 28.46, 100
2022-03-07 16:47:44, POTENC., 57.00, 48.69, 28.46, 100
2022-03-07 16:47:46, POTENC., 57.00, 48.81, 28.46, 100
2022-03-07 16:47:47, POTENC., 57.00, 48.81, 28.46, 100
2022-03-07 16:47:48, POTENC., 57.00, 49.00, 28.46, 70
2022-03-07 16:47:50, POTENC., 57.00, 49.12, 28.46, 100
2022-03-07 16:47:51, POTENC., 57.00, 49.12, 28.46, 100
2022-03-07 16:47:53, POTENC., 57.00, 49.31, 28.46, 100
2022-03-07 16:47:54, POTENC., 57.00, 49.31, 28.46, 100
2022-03-07 16:47:56, POTENC., 57.00, 49.50, 28.46, 100
2022-03-07 16:47:57, POTENC., 57.00, 49.50, 28.47, 100
2022-03-07 16:47:59, POTENC., 57.00, 49.62, 28.47, 100
2022-03-07 16:48:00, POTENC., 57.00, 49.75, 28.47, 100
2022-03-07 16:48:02, POTENC., 57.00, 49.75, 28.47, 100
2022-03-07 16:48:03, POTENC., 57.00, 49.94, 28.47, 100
2022-03-07 16:48:05, POTENC., 57.00, 49.94, 28.47, 100
2022-03-07 16:48:06, POTENC., 57.00, 50.06, 28.47, 50
2022-03-07 16:48:08, POTENC., 57.00, 50.06, 28.47, 100
2022-03-07 16:48:09, POTENC., 57.00, 50.25, 28.47, 100
2022-03-07 16:48:11, POTENC., 57.00, 50.38, 28.47, 100
2022-03-07 16:48:12, POTENC., 57.00, 50.38, 28.47, 100
2022-03-07 16:48:14, POTENC., 57.00, 50.56, 28.47, 100
2022-03-07 16:48:15, POTENC., 57.00, 50.56, 28.47, 100
2022-03-07 16:48:17, POTENC., 57.00, 50.69, 28.47, 100
2022-03-07 16:48:18, POTENC., 57.00, 50.69, 28.47, 100
2022-03-07 16:48:20, POTENC., 57.00, 50.81, 28.47, 100
2022-03-07 16:48:21, POTENC., 57.00, 50.94, 28.47, 100
2022-03-07 16:48:23, POTENC., 57.00, 50.94, 28.47, 100
2022-03-07 16:48:24, POTENC., 57.00, 51.12, 28.47, 30
2022-03-07 16:48:26, POTENC., 57.00, 51.12, 28.48, 100
2022-03-07 16:48:27, POTENC., 57.00, 51.25, 28.48, 100
2022-03-07 16:48:29, POTENC., 57.00, 51.25, 28.48, 100
2022-03-07 16:48:30, POTENC., 57.00, 51.38, 28.48, 100
2022-03-07 16:48:31, POTENC., 57.00, 51.56, 28.48, 100
2022-03-07 16:48:33, POTENC., 57.00, 51.56, 28.48, 100
2022-03-07 16:48:35, POTENC., 57.00, 51.69, 28.48, 100
2022-03-07 16:48:36, POTENC., 57.00, 51.69, 28.48, 100
2022-03-07 16:48:37, POTENC., 57.00, 51.81, 28.48, 100
2022-03-07 16:48:39, POTENC., 57.00, 51.81, 28.48, 100
2022-03-07 16:48:40, POTENC., 57.00, 51.94, 28.48, 100
2022-03-07 16:48:42, POTENC., 57.00, 52.12, 28.48, 10
2022-03-07 16:48:43, POTENC., 57.00, 52.12, 28.48, 100
2022-03-07 16:48:45, POTENC., 57.00, 52.25, 28.48, 100
2022-03-07 16:48:46, POTENC., 57.00, 52.25, 28.48, 100
2022-03-07 16:48:48, POTENC., 57.00, 52.38, 28.48, 100
2022-03-07 16:48:49, POTENC., 57.00, 52.38, 28.48, 100
2022-03-07 16:48:51, POTENC., 57.00, 52.44, 28.48, 100
2022-03-07 16:48:52, POTENC., 57.00, 52.62, 28.48, 100
2022-03-07 16:48:54, POTENC., 57.00, 52.62, 28.48, 100
2022-03-07 16:48:55, POTENC., 57.00, 52.75, 28.48, 100
2022-03-07 16:48:57, POTENC., 57.00, 52.75, 28.48, 100
2022-03-07 16:48:58, POTENC., 57.00, 52.88, 28.48, 100
2022-03-07 16:49:00, POTENC., 57.00, 52.88, 28.48, 100
2022-03-07 16:49:01, POTENC., 57.00, 52.94, 28.49, 100
2022-03-07 16:49:03, POTENC., 57.00, 53.06, 28.49, -9
2022-03-07 16:49:04, POTENC., 57.00, 53.06, 28.49, 90
2022-03-07 16:49:06, POTENC., 57.00, 53.25, 28.49, 90
2022-03-07 16:49:07, POTENC., 57.00, 53.25, 28.49, 90
2022-03-07 16:49:09, POTENC., 57.00, 53.38, 28.49, 90
2022-03-07 16:49:10, POTENC., 57.00, 53.38, 28.49, 90
2022-03-07 16:49:12, POTENC., 57.00, 53.50, 28.49, 90
2022-03-07 16:49:13, POTENC., 57.00, 53.56, 28.49, 90
2022-03-07 16:49:15, POTENC., 57.00, 53.56, 28.49, 90
2022-03-07 16:49:16, POTENC., 57.00, 53.69, 28.49, 90
2022-03-07 16:49:18, POTENC., 57.00, 53.69, 28.49, 90
2022-03-07 16:49:19, POTENC., 57.00, 53.81, 28.49, 90
2022-03-07 16:49:21, POTENC., 57.00, 53.81, 28.49, 90
2022-03-07 16:49:22, POTENC., 57.00, 53.94, 28.50, 90
2022-03-07 16:49:23, POTENC., 57.00, 54.00, 28.49, -29
2022-03-07 16:49:25, POTENC., 57.00, 54.00, 28.49, 70
2022-03-07 16:49:26, POTENC., 57.00, 54.12, 28.49, 70
2022-03-07 16:49:28, POTENC., 57.00, 54.12, 28.49, 70
2022-03-07 16:49:29, POTENC., 57.00, 54.25, 28.49, 70
2022-03-07 16:49:31, POTENC., 57.00, 54.25, 28.49, 70
2022-03-07 16:49:32, POTENC., 57.00, 54.31, 28.49, 70
2022-03-07 16:49:34, POTENC., 57.00, 54.44, 28.49, 70
2022-03-07 16:49:35, POTENC., 57.00, 54.44, 28.49, 70
2022-03-07 16:49:37, POTENC., 57.00, 54.50, 28.49, 70
2022-03-07 16:49:38, POTENC., 57.00, 54.50, 28.49, 70
2022-03-07 16:49:40, POTENC., 57.00, 54.62, 28.48, 70
2022-03-07 16:49:41, POTENC., 57.00, 54.62, 28.48, 70
2022-03-07 16:49:43, POTENC., 57.00, 54.69, 28.47, 70
2022-03-07 16:49:44, POTENC., 57.00, 54.75, 28.47, 70
2022-03-07 16:49:46, POTENC., 57.00, 54.75, 28.47, 70
2022-03-07 16:49:47, POTENC., 57.00, 54.81, 28.47, 70
2022-03-07 16:49:49, POTENC., 57.00, 54.81, 28.47, 70
2022-03-07 16:49:50, POTENC., 57.00, 54.94, 28.47, 70
2022-03-07 16:49:52, POTENC., 57.00, 54.94, 28.46, 70
2022-03-07 16:49:53, POTENC., 57.00, 55.00, 28.46, -49
2022-03-07 16:49:55, POTENC., 57.00, 55.06, 28.46, 50
2022-03-07 16:49:56, POTENC., 57.00, 55.06, 28.46, 50
2022-03-07 16:49:58, POTENC., 57.00, 55.12, 28.46, 50
2022-03-07 16:49:59, POTENC., 57.00, 55.12, 28.46, 50
2022-03-07 16:50:01, POTENC., 57.00, 55.19, 28.46, 50
2022-03-07 16:50:02, POTENC., 57.00, 55.19, 28.46, 50
2022-03-07 16:50:04, POTENC., 57.00, 55.25, 28.46, 50
2022-03-07 16:50:05, POTENC., 57.00, 55.31, 28.46, 50
2022-03-07 16:50:07, POTENC., 57.00, 55.31, 28.46, 50
2022-03-07 16:50:08, POTENC., 57.00, 55.38, 28.46, 50
2022-03-07 16:50:10, POTENC., 57.00, 55.38, 28.46, 50
2022-03-07 16:50:11, POTENC., 57.00, 55.38, 28.46, 50
2022-03-07 16:50:12, POTENC., 57.00, 55.38, 28.46, 50
2022-03-07 16:50:14, POTENC., 57.00, 55.44, 28.46, 50
2022-03-07 16:50:15, POTENC., 57.00, 55.44, 28.46, 50
2022-03-07 16:50:17, POTENC., 57.00, 55.44, 28.46, 50
2022-03-07 16:50:19, POTENC., 57.00, 55.50, 28.46, 50
2022-03-07 16:50:21, POTENC., 57.00, 55.56, 28.46, 50
2022-03-07 16:50:22, POTENC., 57.00, 55.56, 28.46, 50
2022-03-07 16:50:24, POTENC., 57.00, 55.56, 28.46, 50
2022-03-07 16:50:25, POTENC., 57.00, 55.56, 28.46, 50
2022-03-07 16:50:27, POTENC., 57.00, 55.62, 28.46, 50
2022-03-07 16:50:28, POTENC., 57.00, 55.62, 28.46, 50
2022-03-07 16:50:30, POTENC., 57.00, 55.62, 28.46, 50
2022-03-07 16:50:31, POTENC., 57.00, 55.69, 28.46, 50
2022-03-07 16:50:33, POTENC., 57.00, 55.69, 28.46, 50
2022-03-07 16:50:34, POTENC., 57.00, 55.69, 28.46, 50
2022-03-07 16:50:36, POTENC., 57.00, 55.69, 28.47, 50
2022-03-07 16:50:37, POTENC., 57.00, 55.69, 28.47, 50
2022-03-07 16:50:38, POTENC., 48.00, 55.69, 28.47, -100
2022-03-07 16:50:40, POTENC., 48.00, 55.75, 28.47, -100
2022-03-07 16:50:41, POTENC., 48.00, 55.75, 28.47, -100
2022-03-07 16:50:43, POTENC., 48.00, 55.75, 28.47, -100
2022-03-07 16:50:45, POTENC., 48.00, 55.69, 28.47, -100
2022-03-07 16:50:47, POTENC., 48.00, 55.50, 28.47, -100
2022-03-07 16:50:48, POTENC., 48.00, 55.50, 28.47, -100
2022-03-07 16:50:50, POTENC., 48.00, 55.31, 28.47, -100
2022-03-07 16:50:51, POTENC., 48.00, 55.31, 28.47, -100
2022-03-07 16:50:53, POTENC., 48.00, 55.06, 28.47, -100
2022-03-07 16:50:54, POTENC., 48.00, 55.06, 28.47, -100
2022-03-07 16:50:56, POTENC., 48.00, 54.88, 28.47, -18
2022-03-07 16:50:57, POTENC., 48.00, 54.88, 28.48, -100
2022-03-07 16:50:59, POTENC., 48.00, 54.88, 28.48, -100
2022-03-07 16:51:00, POTENC., 48.00, 54.44, 28.48, -100
2022-03-07 16:51:02, POTENC., 48.00, 54.31, 28.48, -100
2022-03-07 16:51:03, POTENC., 48.00, 54.31, 28.48, -100
2022-03-07 16:51:05, POTENC., 48.00, 54.06, 28.48, -100
2022-03-07 16:51:06, POTENC., 48.00, 54.06, 28.48, -100
2022-03-07 16:51:08, POTENC., 48.00, 53.81, 28.48, -3
2022-03-07 16:51:09, POTENC., 48.00, 53.81, 28.48, -100
2022-03-07 16:51:11, POTENC., 48.00, 53.56, 28.48, -100
2022-03-07 16:51:12, POTENC., 48.00, 53.38, 28.48, -100
2022-03-07 16:51:14, POTENC., 48.00, 53.38, 28.48, -100
2022-03-07 16:51:15, POTENC., 48.00, 53.19, 28.48, -100
2022-03-07 16:51:17, POTENC., 48.00, 53.19, 28.48, -100
2022-03-07 16:51:18, POTENC., 48.00, 52.88, 28.48, 13
2022-03-07 16:51:20, POTENC., 48.00, 52.88, 28.48, -86
2022-03-07 16:51:21, POTENC., 48.00, 52.62, 28.48, -87
2022-03-07 16:51:22, POTENC., 48.00, 52.50, 28.48, -87
2022-03-07 16:51:24, POTENC., 48.00, 52.50, 28.48, -88
2022-03-07 16:51:25, POTENC., 48.00, 52.50, 28.48, -88
2022-03-07 16:51:27, POTENC., 48.00, 52.50, 28.48, -88
2022-03-07 16:51:28, POTENC., 48.00, 52.19, 28.48, -89
2022-03-07 16:51:30, POTENC., 48.00, 52.06, 28.48, -89
2022-03-07 16:51:31, POTENC., 48.00, 52.06, 28.48, -90
2022-03-07 16:51:33, POTENC., 48.00, 51.88, 28.48, 29
2022-03-07 16:51:35, POTENC., 48.00, 51.88, 28.48, -70
2022-03-07 16:51:36, POTENC., 48.00, 51.69, 28.48, -70
2022-03-07 16:51:38, POTENC., 48.00, 51.50, 28.48, -70
2022-03-07 16:51:40, POTENC., 48.00, 51.50, 28.48, -70
2022-03-07 16:51:41, POTENC., 48.00, 51.44, 28.48, -70
2022-03-07 16:51:43, POTENC., 48.00, 51.44, 28.49, -70
2022-03-07 16:51:44, POTENC., 48.00, 51.44, 28.49, -70
2022-03-07 16:51:46, POTENC., 48.00, 51.31, 28.49, -70
2022-03-07 16:51:47, POTENC., 48.00, 51.31, 28.49, -70
2022-03-07 16:51:49, POTENC., 48.00, 51.31, 28.49, -70
2022-03-07 16:51:50, POTENC., 48.00, 51.31, 28.49, -70
2022-03-07 16:51:52, POTENC., 48.00, 51.25, 28.49, -70
2022-03-07 16:51:53, POTENC., 48.00, 51.25, 28.49, -70
2022-03-07 16:51:55, POTENC., 48.00, 51.25, 28.49, -70
2022-03-07 16:51:56, POTENC., 48.00, 51.19, 28.49, -70
2022-03-07 16:51:58, POTENC., 48.00, 51.19, 28.49, -70
2022-03-07 16:51:59, POTENC., 48.00, 51.12, 28.49, -70
2022-03-07 16:52:01, POTENC., 48.00, 51.12, 28.49, -70
2022-03-07 16:52:02, POTENC., 48.00, 51.12, 28.49, -70
2022-03-07 16:52:04, POTENC., 48.00, 51.06, 28.50, -70
2022-03-07 16:52:05, POTENC., 48.00, 51.06, 28.50, -70
2022-03-07 16:52:07, POTENC., 48.00, 51.00, 28.50, -70
2022-03-07 16:52:08, POTENC., 48.00, 51.00, 28.50, -70
2022-03-07 16:52:10, POTENC., 48.00, 50.94, 28.50, 49
2022-03-07 16:52:11, POTENC., 48.00, 50.94, 28.50, -50
2022-03-07 16:52:13, POTENC., 48.00, 50.88, 28.50, -50
2022-03-07 16:52:14, POTENC., 48.00, 50.81, 28.50, -50
2022-03-07 16:52:15, POTENC., 48.00, 50.81, 28.50, -50
2022-03-07 16:52:17, POTENC., 48.00, 50.75, 28.50, -50
2022-03-07 16:52:18, POTENC., 48.00, 50.75, 28.50, -50
2022-03-07 16:52:20, POTENC., 48.00, 50.69, 28.50, -50
2022-03-07 16:52:21, POTENC., 48.00, 50.69, 28.50, -50
2022-03-07 16:52:23, POTENC., 48.00, 50.62, 28.51, -50
2022-03-07 16:52:24, POTENC., 48.00, 50.56, 28.51, -50
2022-03-07 16:52:26, POTENC., 48.00, 50.56, 28.51, -50
2022-03-07 16:52:28, POTENC., 48.00, 50.50, 28.51, -50
2022-03-07 16:52:30, POTENC., 48.00, 50.44, 28.51, -50
2022-03-07 16:52:31, POTENC., 48.00, 50.44, 28.51, -50
2022-03-07 16:52:33, POTENC., 48.00, 50.38, 28.51, -50
2022-03-07 16:52:34, POTENC., 48.00, 50.38, 28.51, -50
2022-03-07 16:52:36, POTENC., 48.00, 50.25, 28.51, -50
2022-03-07 16:52:37, POTENC., 48.00, 50.25, 28.51, -50
2022-03-07 16:52:38, POTENC., 48.00, 50.19, 28.51, -50
2022-03-07 16:52:40, POTENC., 48.00, 50.12, 28.51, -50
2022-03-07 16:52:41, POTENC., 48.00, 50.12, 28.51, -50
2022-03-07 16:52:43, POTENC., 48.00, 50.00, 28.51, -50
2022-03-07 16:52:44, POTENC., 48.00, 50.00, 28.51, -50
2022-03-07 16:52:46, POTENC., 48.00, 49.94, 28.51, 69
2022-03-07 16:52:47, POTENC., 48.00, 49.94, 28.51, -30
2022-03-07 16:52:49, POTENC., 48.00, 49.88, 28.51, -30
2022-03-07 16:52:52, POTENC., 48.00, 49.81, 28.51, -30
2022-03-07 16:52:54, POTENC., 48.00, 49.75, 28.51, -30
2022-03-07 16:52:55, POTENC., 48.00, 49.75, 28.51, -30
2022-03-07 16:52:57, POTENC., 48.00, 49.62, 28.51, -30
2022-03-07 16:52:58, POTENC., 48.00, 49.56, 28.51, -30
2022-03-07 16:53:00, POTENC., 48.00, 49.56, 28.51, -30
2022-03-07 16:53:02, POTENC., 48.00, 49.44, 28.51, -30
2022-03-07 16:53:03, POTENC., 48.00, 49.38, 28.51, -30
2022-03-07 16:53:05, POTENC., 48.00, 49.38, 28.51, -30
2022-03-07 16:53:06, POTENC., 48.00, 49.31, 28.50, -30
2022-03-07 16:53:08, POTENC., 48.00, 49.31, 28.50, -30
2022-03-07 16:53:09, POTENC., 48.00, 49.19, 28.50, -30
2022-03-07 16:53:11, POTENC., 48.00, 49.19, 28.50, -30
2022-03-07 16:53:12, POTENC., 48.00, 49.19, 28.50, -30
2022-03-07 16:53:14, POTENC., 48.00, 49.06, 28.50, -30
2022-03-07 16:53:15, POTENC., 48.00, 49.06, 28.50, -30
2022-03-07 16:53:17, POTENC., 48.00, 49.00, 28.50, -30
2022-03-07 16:53:18, POTENC., 48.00, 49.00, 28.50, -30
2022-03-07 16:53:20, POTENC., 48.00, 48.94, 28.50, 89
2022-03-07 16:53:21, POTENC., 48.00, 48.94, 28.50, -10
2022-03-07 16:53:23, POTENC., 48.00, 48.81, 28.50, -10
2022-03-07 16:53:24, POTENC., 48.00, 48.75, 28.50, -10
2022-03-07 16:53:26, POTENC., 48.00, 48.75, 28.50, -10
2022-03-07 16:53:27, POTENC., 48.00, 48.69, 28.50, -10
2022-03-07 16:53:29, POTENC., 48.00, 48.69, 28.50, -10
2022-03-07 16:53:30, POTENC., 48.00, 48.56, 28.50, -10
2022-03-07 16:53:32, POTENC., 48.00, 48.56, 28.50, -10
2022-03-07 16:53:33, POTENC., 48.00, 48.50, 28.50, -10
2022-03-07 16:53:35, POTENC., 48.00, 48.44, 28.50, -10
2022-03-07 16:53:36, POTENC., 48.00, 48.44, 28.50, -10
2022-03-07 16:53:37, POTENC., 48.00, 48.44, 28.50, -10
2022-03-07 16:53:39, POTENC., 48.00, 48.44, 28.50, -10
2022-03-07 16:53:40, POTENC., 48.00, 48.31, 28.50, -10
2022-03-07 16:53:42, POTENC., 48.00, 48.19, 28.50, -10
2022-03-07 16:53:43, POTENC., 48.00, 48.19, 28.50, -10
2022-03-07 16:53:45, POTENC., 48.00, 48.12, 28.50, -10
2022-03-07 16:53:46, POTENC., 48.00, 48.12, 28.50, -10
2022-03-07 16:53:48, POTENC., 48.00, 48.06, 28.50, -10
2022-03-07 16:53:49, POTENC., 48.00, 48.06, 28.50, -10
2022-03-07 16:53:51, POTENC., 48.00, 48.00, 28.50, -10
2022-03-07 16:53:52, POTENC., 48.00, 47.88, 28.50, 100
2022-03-07 16:53:54, POTENC., 48.00, 47.88, 28.50, 10
2022-03-07 16:53:55, POTENC., 48.00, 47.81, 28.50, 10
2022-03-07 16:53:57, POTENC., 48.00, 47.81, 28.50, 10
2022-03-07 16:53:58, POTENC., 48.00, 47.81, 28.50, 10
2022-03-07 16:54:00, POTENC., 48.00, 47.69, 28.50, 10
2022-03-07 16:54:01, POTENC., 48.00, 47.69, 28.50, 10
2022-03-07 16:54:03, POTENC., 48.00, 47.62, 28.50, 10
2022-03-07 16:54:04, POTENC., 48.00, 47.62, 28.50, 10
2022-03-07 16:54:06, POTENC., 48.00, 47.56, 28.50, 10
2022-03-07 16:54:08, POTENC., 48.00, 47.50, 28.50, 11
2022-03-07 16:54:09, POTENC., 48.00, 47.50, 28.50, 11
2022-03-07 16:54:11, POTENC., 48.00, 47.44, 28.50, 11
2022-03-07 16:54:12, POTENC., 48.00, 47.38, 28.50, 11
2022-03-07 16:54:14, POTENC., 48.00, 47.38, 28.50, 11
2022-03-07 16:54:16, POTENC., 48.00, 47.31, 28.51, 11
2022-03-07 16:54:17, POTENC., 48.00, 47.31, 28.51, 11
2022-03-07 16:54:18, POTENC., 48.00, 47.25, 28.51, 11
2022-03-07 16:54:20, POTENC., 48.00, 47.25, 28.51, 11
2022-03-07 16:54:21, POTENC., 48.00, 47.12, 28.51, 11
2022-03-07 16:54:23, POTENC., 48.00, 47.12, 28.51, 12
2022-03-07 16:54:24, POTENC., 48.00, 47.12, 28.51, 12
2022-03-07 16:54:26, POTENC., 48.00, 47.00, 28.51, 12
2022-03-07 16:54:27, POTENC., 48.00, 47.00, 28.50, 12
2022-03-07 16:54:29, POTENC., 48.00, 46.94, 28.50, 100
2022-03-07 16:54:32, POTENC., 48.00, 46.94, 28.50, 32
2022-03-07 16:54:34, POTENC., 48.00, 46.88, 28.50, 32
2022-03-07 16:54:35, POTENC., 48.00, 46.88, 28.50, 33
2022-03-07 16:54:37, POTENC., 48.00, 46.81, 28.50, 33
2022-03-07 16:54:38, POTENC., 48.00, 46.81, 28.50, 33
2022-03-07 16:54:40, POTENC., 48.00, 46.75, 28.50, 33
2022-03-07 16:54:41, POTENC., 48.00, 46.75, 28.50, 33
2022-03-07 16:54:43, POTENC., 48.00, 46.75, 28.50, 34
2022-03-07 16:54:44, POTENC., 48.00, 46.69, 28.50, 34
2022-03-07 16:54:46, POTENC., 48.00, 46.69, 28.50, 34
2022-03-07 16:54:47, POTENC., 48.00, 46.69, 28.50, 34
2022-03-07 16:54:49, POTENC., 48.00, 46.69, 28.50, 34
2022-03-07 16:54:50, POTENC., 48.00, 46.62, 28.50, 35
2022-03-07 16:54:52, POTENC., 48.00, 46.62, 28.50, 35
2022-03-07 16:54:53, POTENC., 48.00, 46.62, 28.50, 35
2022-03-07 16:54:54, POTENC., 48.00, 46.56, 28.50, 35
2022-03-07 16:54:56, POTENC., 48.00, 46.56, 28.50, 35
2022-03-07 16:54:57, POTENC., 48.00, 46.56, 28.50, 36
2022-03-07 16:54:59, POTENC., 48.00, 46.56, 28.50, 36
2022-03-07 16:55:00, POTENC., 48.00, 46.56, 28.50, 36
2022-03-07 16:55:02, POTENC., 48.00, 46.50, 28.50, 36
2022-03-07 16:55:03, POTENC., 48.00, 46.50, 28.50, 36
2022-03-07 16:55:05, POTENC., 48.00, 46.50, 28.50, 37
2022-03-07 16:55:06, POTENC., 48.00, 46.50, 28.50, 37
2022-03-07 16:55:08, POTENC., 48.00, 46.50, 28.50, 37
2022-03-07 16:55:09, POTENC., 48.00, 46.50, 28.50, 37
2022-03-07 16:55:11, POTENC., 48.00, 46.50, 28.50, 37
2022-03-07 16:55:12, POTENC., 48.00, 46.44, 28.50, 38
2022-03-07 16:55:14, POTENC., 48.00, 46.44, 28.50, 38
2022-03-07 16:55:15, POTENC., 48.00, 46.50, 28.51, 38
2022-03-07 16:55:17, POTENC., 48.00, 46.50, 28.51, 38
2022-03-07 16:55:18, POTENC., 48.00, 46.44, 28.51, 38
2022-03-07 16:55:20, POTENC., 48.00, 46.44, 28.51, 39
2022-03-07 16:55:21, POTENC., 48.00, 46.44, 28.51, 39
2022-03-07 16:55:23, POTENC., 48.00, 46.44, 28.51, 39
2022-03-07 16:55:24, POTENC., 48.00, 46.44, 28.51, 39
2022-03-07 16:55:26, POTENC., 48.00, 46.44, 28.51, 40
2022-03-07 16:55:27, POTENC., 48.00, 46.44, 28.51, 40
2022-03-07 16:55:29, POTENC., 48.00, 46.44, 28.51, 40
2022-03-07 16:55:30, POTENC., 48.00, 46.44, 28.51, 40
2022-03-07 16:55:32, POTENC., 48.00, 46.44, 28.51, 40
2022-03-07 16:55:33, POTENC., 48.00, 46.44, 28.51, 41
2022-03-07 16:55:35, POTENC., 48.00, 46.44, 28.51, 41
2022-03-07 16:55:36, POTENC., 48.00, 46.44, 28.51, 41
2022-03-07 16:55:38, POTENC., 48.00, 46.44, 28.51, 41
2022-03-07 16:55:39, POTENC., 48.00, 46.44, 28.51, 41
2022-03-07 16:55:41, POTENC., 48.00, 46.44, 28.51, 42
2022-03-07 16:55:42, POTENC., 48.00, 46.44, 28.51, 42
2022-03-07 16:55:43, POTENC., 48.00, 46.44, 28.51, 42
2022-03-07 16:55:45, POTENC., 48.00, 46.44, 28.51, 42
2022-03-07 16:55:46, POTENC., 48.00, 46.44, 28.51, 42
2022-03-07 16:55:48, POTENC., 48.00, 46.44, 28.51, 43
2022-03-07 16:55:49, POTENC., 48.00, 46.44, 28.51, 43
2022-03-07 16:55:51, POTENC., 48.00, 46.44, 28.51, 43
2022-03-07 16:55:52, POTENC., 48.00, 46.50, 28.51, 43
2022-03-07 16:55:54, POTENC., 43.00, 46.44, 28.51, -100
2022-03-07 16:55:55, POTENC., 43.00, 46.44, 28.51, -56
2022-03-07 16:55:57, POTENC., 43.00, 46.50, 28.51, -57
2022-03-07 16:55:58, POTENC., 43.00, 46.50, 28.51, -57
2022-03-07 16:56:00, POTENC., 43.00, 46.38, 28.51, -57
2022-03-07 16:56:01, POTENC., 43.00, 46.38, 28.51, -58
2022-03-07 16:56:03, POTENC., 43.00, 46.31, 28.51, -58
2022-03-07 16:56:04, POTENC., 43.00, 46.31, 28.51, -58
2022-03-07 16:56:06, POTENC., 43.00, 46.31, 28.51, -59
2022-03-07 16:56:07, POTENC., 43.00, 46.19, 28.51, -59
2022-03-07 16:56:09, POTENC., 43.00, 46.19, 28.51, -59
2022-03-07 16:56:10, POTENC., 43.00, 46.06, 28.51, -60
2022-03-07 16:56:12, POTENC., 43.00, 46.06, 28.51, -60
2022-03-07 16:56:13, POTENC., 43.00, 46.00, 28.51, -60
2022-03-07 16:56:15, POTENC., 43.00, 45.88, 28.51, 59
2022-03-07 16:56:16, POTENC., 43.00, 45.88, 28.51, -41
2022-03-07 16:56:18, POTENC., 43.00, 45.81, 28.51, -41
2022-03-07 16:56:19, POTENC., 43.00, 45.81, 28.51, -41
2022-03-07 16:56:21, POTENC., 43.00, 45.75, 28.51, -41
2022-03-07 16:56:22, POTENC., 43.00, 45.75, 28.51, -41
2022-03-07 16:56:24, POTENC., 43.00, 45.69, 28.51, -42
2022-03-07 16:56:25, POTENC., 43.00, 45.69, 28.51, -42
2022-03-07 16:56:27, POTENC., 43.00, 45.69, 28.51, -42
2022-03-07 16:56:28, POTENC., 43.00, 45.56, 28.51, -42
2022-03-07 16:56:29, POTENC., 43.00, 45.56, 28.51, -42
2022-03-07 16:56:31, POTENC., 43.00, 45.50, 28.51, -43
2022-03-07 16:56:32, POTENC., 43.00, 45.50, 28.51, -43
2022-03-07 16:56:34, POTENC., 43.00, 45.50, 28.51, -43
2022-03-07 16:56:35, POTENC., 43.00, 45.44, 28.51, -43
2022-03-07 16:56:37, POTENC., 43.00, 45.44, 28.51, -43
2022-03-07 16:56:38, POTENC., 43.00, 45.31, 28.51, -44
2022-03-07 16:56:40, POTENC., 43.00, 45.31, 28.51, -44
2022-03-07 16:56:41, POTENC., 43.00, 45.25, 28.51, -44
2022-03-07 16:56:43, POTENC., 43.00, 45.25, 28.50, -44
2022-03-07 16:56:44, POTENC., 43.00, 45.19, 28.50, -44
2022-03-07 16:56:46, POTENC., 43.00, 45.12, 28.50, -45
2022-03-07 16:56:47, POTENC., 43.00, 45.12, 28.50, -45
2022-03-07 16:56:49, POTENC., 43.00, 45.06, 28.50, -45
2022-03-07 16:56:50, POTENC., 43.00, 45.06, 28.50, -45
2022-03-07 16:56:52, POTENC., 43.00, 44.94, 28.50, 74
2022-03-07 16:56:53, POTENC., 43.00, 44.94, 28.50, -25
2022-03-07 16:56:55, POTENC., 43.00, 44.81, 28.50, -25
2022-03-07 16:56:56, POTENC., 43.00, 44.81, 28.50, -26
2022-03-07 16:56:58, POTENC., 43.00, 44.81, 28.50, -26
2022-03-07 16:56:59, POTENC., 43.00, 44.75, 28.50, -26
2022-03-07 16:57:01, POTENC., 43.00, 44.75, 28.51, -26
2022-03-07 16:57:02, POTENC., 43.00, 44.69, 28.51, -26
2022-03-07 16:57:04, POTENC., 43.00, 44.69, 28.51, -26
2022-03-07 16:57:05, POTENC., 43.00, 44.69, 28.51, -26
2022-03-07 16:57:07, POTENC., 43.00, 44.56, 28.51, -26
2022-03-07 16:57:08, POTENC., 43.00, 44.56, 28.51, -26
2022-03-07 16:57:10, POTENC., 43.00, 44.56, 28.51, -26
2022-03-07 16:57:11, POTENC., 43.00, 44.56, 28.51, -27
2022-03-07 16:57:12, POTENC., 43.00, 44.56, 28.51, -27
2022-03-07 16:57:14, POTENC., 43.00, 44.56, 28.51, -27
2022-03-07 16:57:15, POTENC., 43.00, 44.50, 28.51, -27
2022-03-07 16:57:17, POTENC., 43.00, 44.44, 28.51, -27
2022-03-07 16:57:18, POTENC., 43.00, 44.44, 28.51, -27
2022-03-07 16:57:20, POTENC., 43.00, 44.38, 28.51, -27
2022-03-07 16:57:21, POTENC., 43.00, 44.38, 28.51, -27
2022-03-07 16:57:23, POTENC., 43.00, 44.31, 28.51, -27
2022-03-07 16:57:24, POTENC., 43.00, 44.31, 28.51, -27
2022-03-07 16:57:26, POTENC., 43.00, 44.31, 28.51, -28
2022-03-07 16:57:27, POTENC., 43.00, 44.25, 28.51, -28
2022-03-07 16:57:29, POTENC., 43.00, 44.25, 28.51, -28
2022-03-07 16:57:30, POTENC., 43.00, 44.19, 28.51, -28
2022-03-07 16:57:32, POTENC., 43.00, 44.19, 28.51, -28
2022-03-07 16:57:33, POTENC., 43.00, 44.12, 28.51, -28
2022-03-07 16:57:35, POTENC., 43.00, 44.12, 28.51, -28
2022-03-07 16:57:36, POTENC., 43.00, 44.12, 28.51, -28
2022-03-07 16:57:38, POTENC., 43.00, 44.06, 28.51, -28
2022-03-07 16:57:39, POTENC., 43.00, 44.06, 28.51, -28
2022-03-07 16:57:41, POTENC., 43.00, 44.00, 28.51, -29
2022-03-07 16:57:42, POTENC., 43.00, 44.00, 28.51, -29
2022-03-07 16:57:44, POTENC., 43.00, 43.94, 28.51, 90
2022-03-07 16:57:45, POTENC., 43.00, 43.94, 28.51, -9
2022-03-07 16:57:47, POTENC., 43.00, 43.88, 28.51, -9
2022-03-07 16:57:48, POTENC., 43.00, 43.81, 28.51, -9
2022-03-07 16:57:50, POTENC., 43.00, 43.81, 28.51, -9
2022-03-07 16:57:51, POTENC., 43.00, 43.75, 28.51, -9
2022-03-07 16:57:53, POTENC., 43.00, 43.75, 28.51, -9
2022-03-07 16:57:54, POTENC., 43.00, 43.69, 28.51, -9
2022-03-07 16:57:56, POTENC., 43.00, 43.69, 28.51, -9
2022-03-07 16:57:57, POTENC., 43.00, 43.69, 28.51, -9
2022-03-07 16:57:59, POTENC., 43.00, 43.62, 28.51, -9
2022-03-07 16:58:00, POTENC., 43.00, 43.62, 28.51, -9
2022-03-07 16:58:01, POTENC., 43.00, 43.56, 28.51, -9
2022-03-07 16:58:03, POTENC., 43.00, 43.56, 28.51, -9
2022-03-07 16:58:04, POTENC., 43.00, 43.50, 28.51, -9
2022-03-07 16:58:06, POTENC., 43.00, 43.50, 28.51, -9
2022-03-07 16:58:07, POTENC., 43.00, 43.50, 28.51, -9
2022-03-07 16:58:09, POTENC., 43.00, 43.44, 28.51, -9
2022-03-07 16:58:10, POTENC., 43.00, 43.44, 28.51, -9
2022-03-07 16:58:12, POTENC., 43.00, 43.31, 28.51, -9
2022-03-07 16:58:13, POTENC., 43.00, 43.31, 28.51, -9
2022-03-07 16:58:15, POTENC., 43.00, 43.31, 28.51, -9
2022-03-07 16:58:16, POTENC., 43.00, 43.31, 28.51, -9
2022-03-07 16:58:18, POTENC., 43.00, 43.19, 28.51, -9
2022-03-07 16:58:19, POTENC., 43.00, 43.19, 28.51, -9
2022-03-07 16:58:21, POTENC., 43.00, 43.19, 28.51, -9
2022-03-07 16:58:22, POTENC., 43.00, 43.12, 28.51, -9
2022-03-07 16:58:24, POTENC., 43.00, 43.12, 28.51, -9
2022-03-07 16:58:25, POTENC., 43.00, 43.06, 28.51, -9
2022-03-07 16:58:27, POTENC., 43.00, 43.06, 28.50, -9
2022-03-07 16:58:28, POTENC., 43.00, 43.00, 28.50, -9
2022-03-07 16:58:30, POTENC., 43.00, 42.94, 28.50, 100
2022-03-07 16:58:31, POTENC., 43.00, 42.94, 28.50, 11
2022-03-07 16:58:33, POTENC., 43.00, 42.94, 28.50, 11
2022-03-07 16:58:34, POTENC., 43.00, 42.94, 28.51, 11
2022-03-07 16:58:36, POTENC., 43.00, 42.88, 28.51, 11
2022-03-07 16:58:37, POTENC., 43.00, 42.88, 28.51, 11
2022-03-07 16:58:39, POTENC., 43.00, 42.81, 28.51, 11
2022-03-07 16:58:40, POTENC., 43.00, 42.75, 28.51, 11
2022-03-07 16:58:42, POTENC., 43.00, 42.75, 28.51, 11
2022-03-07 16:58:43, POTENC., 43.00, 42.69, 28.51, 11
2022-03-07 16:58:44, POTENC., 43.00, 42.69, 28.51, 11
2022-03-07 16:58:46, POTENC., 43.00, 42.62, 28.51, 12
2022-03-07 16:58:47, POTENC., 43.00, 42.62, 28.50, 12
2022-03-07 16:58:49, POTENC., 43.00, 42.56, 28.50, 12
2022-03-07 16:58:50, POTENC., 43.00, 42.56, 28.50, 12
2022-03-07 16:58:52, POTENC., 43.00, 42.56, 28.50, 12
2022-03-07 16:58:53, POTENC., 43.00, 42.56, 28.50, 12
2022-03-07 16:58:55, POTENC., 43.00, 42.56, 28.50, 12
2022-03-07 16:58:56, POTENC., 43.00, 42.50, 28.50, 12
2022-03-07 16:58:58, POTENC., 43.00, 42.50, 28.50, 12
2022-03-07 16:58:59, POTENC., 43.00, 42.44, 28.50, 12
2022-03-07 16:59:01, POTENC., 43.00, 42.44, 28.50, 13
2022-03-07 16:59:02, POTENC., 43.00, 42.44, 28.50, 13
2022-03-07 16:59:04, POTENC., 43.00, 42.38, 28.50, 13
2022-03-07 16:59:05, POTENC., 43.00, 42.38, 28.50, 13
2022-03-07 16:59:07, POTENC., 43.00, 42.38, 28.50, 13
2022-03-07 16:59:08, POTENC., 43.00, 42.38, 28.50, 13
2022-03-07 16:59:10, POTENC., 43.00, 42.25, 28.50, 13
2022-03-07 16:59:11, POTENC., 43.00, 42.25, 28.50, 13
2022-03-07 16:59:13, POTENC., 43.00, 42.25, 28.50, 13
2022-03-07 16:59:14, POTENC., 43.00, 42.19, 28.50, 13
2022-03-07 16:59:16, POTENC., 43.00, 42.19, 28.50, 14
2022-03-07 16:59:17, POTENC., 43.00, 42.19, 28.50, 14
2022-03-07 16:59:19, POTENC., 43.00, 42.19, 28.50, 14
2022-03-07 16:59:20, POTENC., 43.00, 42.12, 28.50, 14
2022-03-07 16:59:22, POTENC., 43.00, 42.12, 28.50, 14
2022-03-07 16:59:23, POTENC., 43.00, 42.12, 28.50, 14
2022-03-07 16:59:25, POTENC., 43.00, 42.06, 28.50, 14
2022-03-07 16:59:26, POTENC., 43.00, 42.06, 28.50, 14
2022-03-07 16:59:28, POTENC., 43.00, 42.00, 28.50, 14
2022-03-07 16:59:29, POTENC., 43.00, 42.00, 28.50, 14
2022-03-07 16:59:30, POTENC., 43.00, 41.94, 28.50, 100
2022-03-07 16:59:32, POTENC., 43.00, 41.94, 28.50, 35
2022-03-07 16:59:33, POTENC., 43.00, 41.94, 28.50, 35
2022-03-07 16:59:36, POTENC., 43.00, 41.94, 28.50, 35
2022-03-07 16:59:37, POTENC., 43.00, 41.88, 28.49, 35
2022-03-07 16:59:39, POTENC., 43.00, 41.88, 28.49, 36
2022-03-07 16:59:40, POTENC., 43.00, 41.88, 28.49, 36
2022-03-07 16:59:42, POTENC., 43.00, 41.88, 28.49, 36
2022-03-07 16:59:43, POTENC., 43.00, 41.88, 28.49, 36
2022-03-07 16:59:45, POTENC., 43.00, 41.88, 28.49, 36
2022-03-07 16:59:46, POTENC., 43.00, 41.88, 28.49, 37
2022-03-07 16:59:48, POTENC., 43.00, 41.81, 28.49, 37
2022-03-07 16:59:49, POTENC., 43.00, 41.81, 28.49, 37
2022-03-07 16:59:51, POTENC., 43.00, 41.88, 28.49, 37
2022-03-07 16:59:52, POTENC., 43.00, 41.88, 28.49, 37
2022-03-07 16:59:53, POTENC., 43.00, 41.81, 28.49, 38
2022-03-07 16:59:55, POTENC., 43.00, 41.81, 28.49, 38
2022-03-07 16:59:56, POTENC., 43.00, 41.81, 28.49, 38
2022-03-07 16:59:58, POTENC., 43.00, 41.81, 28.49, 38
2022-03-07 16:59:59, POTENC., 43.00, 41.81, 28.49, 38
2022-03-07 17:00:02, POTENC., 43.00, 41.81, 28.49, 39
2022-03-07 17:00:03, POTENC., 43.00, 41.81, 28.49, 39
2022-03-07 17:00:05, POTENC., 43.00, 41.81, 28.49, 39
2022-03-07 17:00:06, POTENC., 43.00, 41.75, 28.49, 39
2022-03-07 17:00:08, POTENC., 43.00, 41.75, 28.49, 40
